[
    {
        "name" : "Stalin",
        "quotes" : [
            "One death is a tragedy; one million is a statistic.",
            "Ideas are more powerful than guns. We would not let our enemies have guns, why should we let them have ideas."
        ]
    }
]
